{
  "@class" : "org.apereo.cas.services.RegexRegisteredService",
  "serviceId" : "^https?://adminsite.prodige.internal/.*",
  "name" : "prodigeadminsite",
  "id" : 15002,
  "description" : "Prodige HTTPS proxy auth",
  "logoutType" : "BACK_CHANNEL",
  "logoutUrl" : "https://adminsite.prodige.internal",
  "proxyPolicy" : {
    "@class" : "org.apereo.cas.services.RegexMatchingRegisteredServiceProxyPolicy",
    "pattern" : "^https?://.*"
  },
  "evaluationOrder" : 15002
}
